[gd_scene load_steps=2 format=2]

[ext_resource path="res://MainMenu.gd" type="Script" id=1]

[node name="MainMenu" type="Control"]
anchor_right = 1.0
anchor_bottom = 1.0
script = ExtResource( 1 )
__meta__ = {
"_edit_use_anchors_": false
}

[node name="MarginContainer" type="MarginContainer" parent="."]
margin_left = 50.0
margin_top = 50.0
margin_right = 974.0
margin_bottom = 550.0
__meta__ = {
"_edit_use_anchors_": false
}

[node name="VBoxContainer" type="VBoxContainer" parent="MarginContainer"]
margin_right = 924.0
margin_bottom = 500.0

[node name="Title" type="Label" parent="MarginContainer/VBoxContainer"]
margin_right = 924.0
margin_bottom = 14.0
text = "Choose a tool:"

[node name="Assembler" type="Button" parent="MarginContainer/VBoxContainer"]
margin_top = 18.0
margin_right = 924.0
margin_bottom = 257.0
size_flags_horizontal = 3
size_flags_vertical = 3
text = "Assembler"

[node name="Emulator" type="Button" parent="MarginContainer/VBoxContainer"]
margin_top = 261.0
margin_right = 924.0
margin_bottom = 500.0
size_flags_horizontal = 3
size_flags_vertical = 3
text = "Emulator"
__meta__ = {
"_edit_use_anchors_": false
}
[connection signal="pressed" from="MarginContainer/VBoxContainer/Assembler" to="." method="_on_Assembler_pressed"]
[connection signal="pressed" from="MarginContainer/VBoxContainer/Emulator" to="." method="_on_Emulator_pressed"]
